# Blender 3.5.1 MTL File: 'None'
# www.blender.org

newmtl PalmLeaf
Ks 0.500000 0.500000 0.500000
Ke 0.000000 0.000000 0.000000
Ni 1.500000
d 1.000000
illum 2
Pr 0.500000
Pm 0.000000
Ps 0.000000
Pc 0.000000
Pcr 0.030000
aniso 0.000000
anisor 0.000000
map_Kd PalmLeaf_baseColor.jpeg
map_Bump -bm 1.000000 PalmLeaf_normal.png

newmtl coconut
Ks 0.500000 0.500000 0.500000
Ke 0.000000 0.000000 0.000000
Ni 1.500000
d 1.000000
illum 2
Pr 0.500000
Pm 0.000000
Ps 0.000000
Pc 0.000000
Pcr 0.030000
aniso 0.000000
anisor 0.000000
map_Kd coconut_baseColor.jpeg
map_Bump -bm 1.000000 coconut_normal.png

newmtl palmTree_M
Ks 0.500000 0.500000 0.500000
Ke 0.000000 0.000000 0.000000
Ni 1.500000
d 1.000000
illum 2
Pr 0.500000
Pm 0.000000
Ps 0.000000
Pc 0.000000
Pcr 0.030000
aniso 0.000000
anisor 0.000000
map_Kd palmTree_M_baseColor.jpeg
map_Bump -bm 1.000000 palmTree_M_normal.png
